{
    "cordova-plugin-whitelist": {
        "source": {
            "type": "registry",
            "id": "cordova-plugin-whitelist@1"
        },
        "is_top_level": true,
        "variables": {}
    },
    "cordova-plugin-device": {
        "source": {
            "type": "registry",
            "id": "cordova-plugin-device"
        },
        "is_top_level": true,
        "variables": {}
    },
    "cordova-plugin-dialogs": {
        "source": {
            "type": "registry",
            "id": "cordova-plugin-dialogs"
        },
        "is_top_level": true,
        "variables": {}
    },
    "cordova-plugin-inappbrowser": {
        "source": {
            "type": "registry",
            "id": "cordova-plugin-inappbrowser@1.5.0"
        },
        "is_top_level": true,
        "variables": {}
    },
    "cordova-plugin-network-information": {
        "source": {
            "type": "registry",
            "id": "cordova-plugin-network-information"
        },
        "is_top_level": true,
        "variables": {}
    },
    "cordova-plugin-vibration": {
        "source": {
            "type": "registry",
            "id": "cordova-plugin-vibration"
        },
        "is_top_level": true,
        "variables": {}
    },
    "cordova-plugin-statusbar": {
        "source": {
            "type": "registry",
            "id": "cordova-plugin-statusbar@2.2.0"
        },
        "is_top_level": true,
        "variables": {}
    },
    "de.appplant.cordova.plugin.local-notification": {
        "source": {
            "type": "git",
            "url": "https://github.com/spk0611/cordova-plugin-local-notifications",
            "subdir": ".",
            "ref": "9ad32cf2059cdf9a54b4930b1c58ba76ef7e3a87"
        },
        "is_top_level": true,
        "variables": {}
    },
    "cordova-plugin-app-event": {
        "source": {
            "type": "registry",
            "id": "cordova-plugin-app-event"
        },
        "is_top_level": false,
        "variables": {}
    },
    "cordova-plugin-camera": {
        "source": {
            "type": "registry",
            "id": "cordova-plugin-camera"
        },
        "is_top_level": true,
        "variables": {}
    },
    "cordova-plugin-compat": {
        "source": {
            "type": "registry",
            "id": "cordova-plugin-compat"
        },
        "is_top_level": false,
        "variables": {}
    }
}